# Model: TSF,,,
# Model Parameters: **ColumnEnsembleClassifier(estimators=[('TSF0';TimeSeriesForestClassifier(class_weight='balanced';criterion='gini';max_depth=3;n_estimators=50;n_jobs=10);[0]);('TSF1';TimeSeriesForestClassifier(class_weight='balanced';criterion='gini';max_depth=3;n_estimators=50;n_jobs=10);[1]);('TSF2';TimeSeriesForestClassifier(class_weight='balanced';criterion='gin...TimeSeriesForestClassifier(class_weight='balanced';criterion='gini';max_depth=3;n_estimators=50;n_jobs=10);[3]);('TSF4';TimeSeriesForestClassifier(class_weight='balanced';criterion='gini';max_depth=3;n_estimators=50;n_jobs=10);[4]);('TSF5';TimeSeriesForestClassifier(class_weight='balanced';criterion='gini';max_depth=3;n_estimators=50;n_jobs=10);[5])])**,,,
# TrainingSet: **/data/SHARPS/BERKAY/NRT_v0.1/NRT_partitioned/ER_instances_O12L0P24/nrt_p2 & nrt_p3**,number of FQ: 55608,number of ER: 2959,number of NEFL: 5625
# TestingSet: **/data/SHARPS/BERKAY/NRT_v0.1/NRT_partitioned/ER_instances_O12L0P24/nrt_p4 & nrt_p5**,number of FQ: 140175,number of ER: 3851,number of NEFL: 9779
# ModelPath: **/home/aji1/NRT/EP**,,,
# Confusion Matrix,,,
#,,Predicted,
#,,ER,NF(+NEFL)
#Actual,ER,3080,771
#,NF(+NEFL),32297,117657
#,,,
Metric,Score,,
TSS,0.5844128787394050,,
HSS2,0.1171613345132910,,
GSS,0.06222590212369870,,
Precision(ER),0.08706221556378440,,
TPR/Recall(ER),0.7997922617501950,,
Precision(NEFL+NF),0.9934897152700380,,
TNR/Recall(NEFL+NF),0.78462061698921,,
FAR/FPR,0.9129377844362160,,
POFD/FDR,0.21537938301079,,
F1(ER),0.15703069236259800,,
F1(NEFL+NF),0.8767875639946050,,