# Model: TSF,,,
# Model Parameters: **ColumnEnsembleClassifier(estimators=[('TSF0';TimeSeriesForestClassifier(class_weight='balanced';criterion='gini';max_depth=3;n_estimators=50;n_jobs=3);[0]);('TSF1';TimeSeriesForestClassifier(class_weight='balanced';criterion='gini';max_depth=3;n_estimators=50;n_jobs=3);[1]);('TSF2';TimeSeriesForestClassifier(class_weight='balanced';criterion='gini'...TimeSeriesForestClassifier(class_weight='balanced';criterion='gini';max_depth=3;n_estimators=50;n_jobs=3);[3]);('TSF4';TimeSeriesForestClassifier(class_weight='balanced';criterion='gini';max_depth=3;n_estimators=50;n_jobs=3);[4]);('TSF5';TimeSeriesForestClassifier(class_weight='balanced';criterion='gini';max_depth=3;n_estimators=50;n_jobs=3);[5])])**,,,
# TrainingSet: **/data/SHARPS/BERKAY/NRT_v0.1/NRT_partitioned/ER_instances_O12L0P24/nrt_p4 & nrt_p5** , number of FQ: 140175, number of ER: 2594, number of NEFL: 9779
# TestingSet: **/data/SHARPS/BERKAY/NRT_v0.1/NRT_partitioned/ER_instances_O12L0P24/nrt_p2 & nrt_p3** , number of FQ: 55608, number of ER: 1921, number of NEFL: 5625
# ModelPath: **/home/aji1/FP/FP_EP**,,,
# Confusion Matrix,,,
#,,Predicted,
#,,ER(+NEFL),NF
#Actual,ER(+NEFL),3280,4266
#,NF,5824,49784
#,,,
Metric,Score,,
TSS,0.3299342415194194,,
HSS2,0.3029074109339049,,
GSS,0.1784860843099868,,
Precision(ER+NEFL),0.3602811950790861,,
TPR/Recall(ER+NEFL),0.43466737344288364,,
Precision(NF),0.9210730804810361,,
TNR/Recall(NF),0.8952668680765358,,
FAR/FPR,0.6397188049209139,,
POFD/FDR,0.10473313192346426,,
F1(ER+NEFL),0.393993993993994,,
F1(NF),0.9079866494008646,,
