# Model: TSF,,,
# Model Parameters: **TimeSeriesForestClassifier(class_weight='balanced';criterion='gini';max_depth=3;n_estimators=50;n_jobs=3)**,,,
# TrainingSet: **/data/ARIAP_partitioned/SOHOpartitions/instances_O12L0P24C6/SOHOp2 & SOHOp3** , number of positives(XM): 7729, number of negatives(CBN): 151038,,,
# TestingSet: **/data/ARIAP_partitioned/SOHOpartitions/instances_O12L0P24C6/SOHOp1** , number of positives(XM): 2311, number of negatives(CBN): 85290,,,
# ModelPath: **/home/aji1/FP/FP_SOHO**,,,
# Confusion Matrix,,,
#,,Predicted,
#,,XM,CBN
#Actual,XM,1900,411
#,CBN,35208,50082
#,,,
Metric,Score,,
TSS,0.4093515345790743,,
HSS2,0.049173914299044406,,
GSS,0.025206713535089735,,
Precision(XM),0.0512018971650318,,
TPR/Recall(XM),0.8221549112938122,,
Precision(CBN),0.9918602578575249,,
TNR/Recall(CBN),0.587196623285262,,
FAR/FPR,0.9487981028349682,,
POFD/FDR,0.41280337671473794,,
F1(XM),0.0964002130952079,,
F1(CBN),0.7376770287885819,,
