# Model: TSF,,,
# Model Parameters: **Pipeline(steps=[('concatenate';ColumnConcatenator());('classify';TimeSeriesForestClassifier(class_weight={'CBN':0.67;'XM':0.33};criterion='gini';max_depth=6;n_estimators=250;n_jobs=10))])**,,,
# TrainingSet: **/data/SHARPS/BERKAY/v0.7/CLUS/partition1 & partition2** , number of positives(XM): 2657, number of negatives(CBN): 17014,,,
# TestingSet: **/data/SHARPS/BERKAY/v0.7/new-data-folds/instances_O12L0P24/partition4** , number of positives(XM): 1166, number of negatives(CBN): 50097,,,
# ModelPath: **/home/aji1/SHARPS/OperationalTest/us_p1_p2**,,,
# Confusion Matrix,,,
#,,Predicted,
#,,XM,CBN
#Actual,XM,542,623
#,CBN,764,49332
#,,,
Metric,Score,,
TSS,0.4499853328818968,,
HSS2,0.4248721097104372,,
GSS,0.26973816686867946,,
Precision(XM),0.41500765696784075,,
TPR/Recall(XM),0.4652360515021459,,
Precision(CBN),0.9875287758983085,,
TNR/Recall(CBN),0.9847492813797509,,
FAR/FPR,0.5849923430321593,,
POFD/FDR,0.015250718620249121,,
F1(XM),0.4386887899635775,,
F1(CBN),0.9861370700942519,,
