# Model: TSF,,,
# Model Parameters: **ColumnEnsembleClassifier(estimators=[('TSF0';TimeSeriesForestClassifier(class_weight={0:0.33;1:0.67};criterion='gini';max_depth=6;n_estimators=250;n_jobs=10);[0]);('TSF1';TimeSeriesForestClassifier(class_weight={0:0.33;1:0.67};criterion='gini';max_depth=6;n_estimators=250;n_jobs=10);[1])])**,,,
# TrainingSet: **/data/SHARPS/BERKAY/v0.7/CLUS/partition1 & partition2** , number of positives(XM): 2657, number of negatives(CBN): 17014,
# TestingSet: **/data/SHARPS/BERKAY/v0.7/new-data-folds/instances_O12L0P24/partition4** , number of positives(XM): 1166, number of negatives(CBN): 50097,
# ModelPath: **/home/aji1/SHARPS/OperationalTest/us_p1_p2**,,,
# Confusion Matrix,,,
#,,Predicted,
#,,XM,CBN
#Actual,XM,1021,144
#,CBN,4017,46079
#,,,
Metric,Score,,
TSS,0.7962088069875796,,
HSS2,0.303482275121728,,
GSS,0.1788854137338903,,
Precision(XM),0.20265978562921794,,
TPR/Recall(XM),0.8763948497854077,,
Precision(CBN),0.9968846678060705,,
TNR/Recall(CBN),0.9198139572021719,,
FAR/FPR,0.7973402143707821,,
POFD/FDR,0.08018604279782816,,
F1(XM),0.3291955505400613,,
F1(CBN),0.9567998006623823,,
