# Model: TSF,,,
# Model Parameters: **Pipeline(steps=[('concatenate';ColumnConcatenator());('classify';TimeSeriesForestClassifier(class_weight={'CBN':0.67;'XM':0.33};criterion='gini';max_depth=3;n_estimators=50;n_jobs=10))])**,,,
# TrainingSet: **/data/SHARPS/BERKAY/v0.7/CLUS/partition1** , number of positives(XM): 1255, number of negatives(CBN): 8036,,,
# TestingSet: **/data/SHARPS/BERKAY/v0.7/CLUS/partition2** , number of positives(XM): 1402, number of negatives(CBN): 8978,,,
# ModelPath: **/home/aji1/SHARPS/Ensemble/TSF_updated**,,,
# Confusion Matrix,,,
#,,Predicted,
#,,XM,CBN
#Actual,XM,480,921
#,CBN,161,8816
#,,,
Metric,Score,,
TSS,0.32467769763270826,,
HSS2,0.4210602566721424,,
GSS,0.26667278371541486,,
Precision(XM),0.748829953198128,,
TPR/Recall(XM),0.3426124197002141,,
Precision(CBN),0.9054123446646811,,
TNR/Recall(CBN),0.9820652779324942,,
FAR/FPR,0.25117004680187205,,
POFD/FDR,0.01793472206750585,,
F1(XM),0.4701273261508325,,
F1(CBN),0.9421823233942503,,
