# Model: TSF,,,
# Model Parameters: **ColumnEnsembleClassifier(estimators=[('TSF0';TimeSeriesForestClassifier(class_weight={0:0.33;1:0.67};criterion='gini';max_depth=3;n_estimators=50;n_jobs=10);[0]);('TSF1';TimeSeriesForestClassifier(class_weight={0:0.33;1:0.67};criterion='gini';max_depth=3;n_estimators=50;n_jobs=10);[1])])**,,,
# TrainingSet: **/data/SHARPS/BERKAY/v0.7/CLUS/partition1** , number of positives(XM): 1255, number of negatives(CBN): 8036,,,
# TestingSet: **/data/SHARPS/BERKAY/v0.7/CLUS/partition2** , number of positives(XM): 1402, number of negatives(CBN): 8978,,,
# ModelPath: **/home/aji1/SHARPS/Ensemble/TSF_updated**,,,
# Confusion Matrix,,,
#,,Predicted,
#,,XM,CBN
#Actual,XM,1154,247
#,CBN,726,8251
#,,,
Metric,Score,,
TSS,0.7428240160416297,,
HSS2,0.649168462262674,,
GSS,0.48056951894241834,,
Precision(XM),0.6138297872340426,,
TPR/Recall(XM),0.8236973590292648,,
Precision(CBN),0.9709343374911744,,
TNR/Recall(CBN),0.919126657012365,,
FAR/FPR,0.3861702127659574,,
POFD/FDR,0.08087334298763507,,
F1(XM),0.7034440719292898,,
F1(CBN),0.9443204577968527,,
