# Model: TSF,,,
# Model Parameters: **ColumnEnsembleClassifier(estimators=[('TSF0';TimeSeriesForestClassifier(class_weight='balanced';criterion='gini';max_depth=3;n_estimators=50;n_jobs=6);[0]);('TSF1';TimeSeriesForestClassifier(class_weight='balanced';criterion='gini';max_depth=3;n_estimators=50;n_jobs=6);[1]);('TSF2';TimeSeriesForestClassifier(class_weight='balanced';criterion='gini'...TimeSeriesForestClassifier(class_weight='balanced';criterion='gini';max_depth=3;n_estimators=50;n_jobs=6);[3]);('TSF4';TimeSeriesForestClassifier(class_weight='balanced';criterion='gini';max_depth=3;n_estimators=50;n_jobs=6);[4]);('TSF5';TimeSeriesForestClassifier(class_weight='balanced';criterion='gini';max_depth=3;n_estimators=50;n_jobs=6);[5])])**,,,
# TrainingSet: **/data/SHARPS/BERKAY/v0.7/new-data-folds/instances_O12L0P24/partition1 & partition2** , number of positives(XM): 2655, number of negatives(CBN): 159394,
# TestingSet: **/data/SHARPS/BERKAY/v0.7/new-data-folds/instances_O12L0P24/partition4 & partition5** , number of positives(XM): 2155, number of negatives(CBN): 124471,
# ModelPath: **/home/aji1/FP/FP_DSDO**,,,
# Confusion Matrix,,,
#,,Predicted,
#,,XM,CBN
#Actual,XM,2103,52
#,CBN,14859,109612
#,,,
Metric,Score,,
TSS,0.8564928652768493,,
HSS2,0.19572420536780175,,
GSS,0.10847798654179704,,
Precision(XM),0.1239830208701804,,
TPR/Recall(XM),0.9758700696055684,,
Precision(CBN),0.9995258243361541,,
TNR/Recall(CBN),0.8806227956712809,,
FAR/FPR,0.8760169791298196,,
POFD/FDR,0.11937720432871914,,
F1(XM),0.22001360046032326,,
F1(CBN),0.9363145194012003,,
